^G:\FALL 2018\DISCRETE\PROG2\PREDICTIVE_PARSING\PREDICTIVE_PARSING\STDAFX.CPP
/c /ZI /nologo /W3 /WX- /diagnostics:classic /sdl /Od /Oy- /D WIN32 /D _DEBUG /D _CONSOLE /D _UNICODE /D UNICODE /Gm /EHsc /RTC1 /MDd /GS /fp:precise /Zc:wchar_t /Zc:forScope /Zc:inline /Yc"stdafx.h" /Fp"DEBUG\PREDICTIVE_PARSING.PCH" /Fo"DEBUG\\" /Fd"DEBUG\VC141.PDB" /Gd /TP /analyze- G:\FALL 2018\DISCRETE\PROG2\PREDICTIVE_PARSING\PREDICTIVE_PARSING\STDAFX.CPP
^G:\FALL 2018\DISCRETE\PROG2\PREDICTIVE_PARSING\PREDICTIVE_PARSING\PREDICTIVE_PARSING.CPP
/c /ZI /nologo /W3 /WX- /diagnostics:classic /sdl /Od /Oy- /D WIN32 /D _DEBUG /D _CONSOLE /D _UNICODE /D UNICODE /Gm /EHsc /RTC1 /MDd /GS /fp:precise /Zc:wchar_t /Zc:forScope /Zc:inline /Yu"stdafx.h" /Fp"DEBUG\PREDICTIVE_PARSING.PCH" /Fo"DEBUG\\" /Fd"DEBUG\VC141.PDB" /Gd /TP /analyze- G:\FALL 2018\DISCRETE\PROG2\PREDICTIVE_PARSING\PREDICTIVE_PARSING\PREDICTIVE_PARSING.CPP
^E:\FALL 2018\CIS 306 - DISCRETE\PROG2\PREDICTIVE_PARSING\PREDICTIVE_PARSING\STDAFX.CPP
/c /ZI /nologo /W3 /WX- /diagnostics:classic /sdl /Od /Oy- /D WIN32 /D _DEBUG /D _CONSOLE /D _UNICODE /D UNICODE /Gm- /EHsc /RTC1 /MDd /GS /fp:precise /permissive- /Zc:wchar_t /Zc:forScope /Zc:inline /Yc"stdafx.h" /Fp"DEBUG\PREDICTIVE_PARSING.PCH" /Fo"DEBUG\\" /Fd"DEBUG\VC141.PDB" /Gd /TP /analyze- /FC E:\FALL 2018\CIS 306 - DISCRETE\PROG2\PREDICTIVE_PARSING\PREDICTIVE_PARSING\STDAFX.CPP
^E:\FALL 2018\CIS 306 - DISCRETE\PROG2\PREDICTIVE_PARSING\PREDICTIVE_PARSING\PREDICTIVE_PARSING.CPP
/c /ZI /nologo /W3 /WX- /diagnostics:classic /sdl /Od /Oy- /D WIN32 /D _DEBUG /D _CONSOLE /D _UNICODE /D UNICODE /Gm- /EHsc /RTC1 /MDd /GS /fp:precise /permissive- /Zc:wchar_t /Zc:forScope /Zc:inline /Yu"stdafx.h" /Fp"DEBUG\PREDICTIVE_PARSING.PCH" /Fo"DEBUG\\" /Fd"DEBUG\VC141.PDB" /Gd /TP /analyze- /FC E:\FALL 2018\CIS 306 - DISCRETE\PROG2\PREDICTIVE_PARSING\PREDICTIVE_PARSING\PREDICTIVE_PARSING.CPP
